<?xml version="1.0" encoding="UTF-8"?>
<svg width="256px" height="256px" viewBox="0 0 256 256" version="1.1" xmlns="http://www.w3.org/2000/svg" xmlns:xlink="http://www.w3.org/1999/xlink">
    <!-- Generator: Sketch 50.2 (55047) - http://www.bohemiancoding.com/sketch -->
    <title>logo_white</title>
    <desc>Created with Sketch.</desc>
    <defs></defs>
    <g id="logo_white" stroke="none" stroke-width="1" fill="none" fill-rule="evenodd">
        <path d="M89.4719255,122.130446 C77.9089576,122.130446 66.7800719,126.664557 58.3293917,135.1136 C41.0840416,152.360588 41.0840416,180.423595 58.3293917,197.670583 C75.5780179,214.915933 103.636111,214.915933 120.886375,197.670583 C131.997242,186.55644 136.338065,170.808264 132.500122,155.540035 C130.871904,149.074667 132.763848,142.229272 137.479783,137.514975 C142.197356,132.797402 149.044389,130.916925 155.506481,132.533677 C170.769795,136.374895 186.517971,132.029159 197.632114,120.921567 C205.98615,112.565894 210.587421,101.458303 210.587421,89.6430759 C210.587421,77.8278488 205.98615,66.7218958 197.632114,58.3694984 C189.278079,50.0138248 178.170488,45.4125531 166.356899,45.4125531 C154.541672,45.4125531 143.434081,50.0138248 135.078407,58.3662223 C123.965902,69.4787275 119.623441,85.2269034 123.46466,100.491856 C125.09124,106.958862 123.200934,113.805895 118.486637,118.520192 C113.77234,123.236127 106.917117,125.126432 100.458301,123.499852 C96.8021821,122.580908 93.1149402,122.130446 89.4719255,122.130446 M89.6078834,248.499155 C68.5720944,248.499155 47.5346674,240.492386 31.5227661,224.477208 C-0.507588708,192.448492 -0.507588708,140.335691 31.5227661,108.306974 C45.7623015,94.0658005 64.7341522,85.744526 84.415277,84.4537456 C85.7060574,64.7726208 94.0273319,45.799132 108.271781,31.5579586 C123.785717,16.0440233 144.413632,7.49997451 166.356899,7.49997451 C188.298527,7.49997451 208.926443,16.0440233 224.440378,31.5595967 C239.955951,47.073532 248.5,67.6998093 248.5,89.6430759 C248.5,111.584704 239.955951,132.214258 224.43874,147.728193 C210.199204,161.969366 191.227354,170.290641 171.546229,171.581421 C170.255449,191.262546 161.934174,210.237673 147.693001,224.477208 C131.679461,240.492386 110.643672,248.499155 89.6078834,248.499155" id="Fill-1" fill="#FFFFFF"></path>
    </g>
</svg>